{
  "type": "service_account",
  "project_id": "efimerum-d15e8",
  "private_key_id": "c4270b5ad2e1c4d5923eb4e82440e9f4b3eefdc1",
  "private_key": "-----BEGIN PRIVATE KEY-----\nMIIEvAIBADANBgkqhkiG9w0BAQEFAASCBKYwggSiAgEAAoIBAQCc5J/LoCuGYcak\nkN09I6IXyp2SKIOO8gPxgDicAFgvbTmTQNpEu8/GifsWIpb9AVTudtIEfvzeKGm7\nA2rltbuYUcXCuPMsl7A4wef4TaXalPR0FFAeTHIoFJNyBPzd/FXBDp9cxSFNQTi3\nteo7+wsqSspBfDVkCHGkN1T2QJ8hkyen3dNYJQkRk/9k8BG2e73yah/sxA3pMqpL\nGEc70WUQVBX1Jx6uUVxRNBSaCcgjipsOSfl2mel6318Sn70cfOhgX7jqRJO6Dzwg\nHQP6A2qH4LduEeWulHmXQyPd3nBIj68JDT3PjV+QB359JITCn+h2HFjq75HNEn3U\nskIG/dOnAgMBAAECggEANWx0LTZBG+U3atoZO7RigY9w0FATXB100ktC+3vyi1O6\nAzZWHImHWqepZAQrPcOyU/EJ2pYTLOK9/fxP7iBP3LIbkQ7BXzHXw7vjbV2jWCbY\nhp5UGb0WMievfWfNYxmFadO82C4YBOJsmcHMHNiDGMeWz22oEIP/jld5CtE+XoPg\ns5iAxFUJPIs7FIUVJn9ojb5rs0Zhpw4c9tBxLBl0wZ8rsH8C9eje5gpiqhHBVX1a\nbrLM3iN83eZxj8yav/lKfUh5DBxfW+ONpPaTjtEgKroQGVTW5fPXyeP5ApsCNvyq\n7lATUZ9rAMgMfCBPQnvJ8LYZBeOrj8O4kXtiZ9B3IQKBgQDOwPdNBB+kxjGxcZMa\nmEcmi6nHJzqBBskU/Aq3vcYfBs9v5X5eq2e3qYt+fy9jiYAot38MhRGFMiJ7O2xd\nk49zDjhmoZpulePiXtVMS3uyBpvKiylrB9vvM/UW/N04nY8dSKUHJlbT0K4DaV/9\njP1pzAmZsGHyptigbcrpf4ddYwKBgQDCQ1kBzH96NcQjdnVnUKDNZXpx/VtshJ+X\nXPC+eUmfknGi/ZhId4MIMeY/4RPNvGy8ceW6aW4Eu5ltD521YbG7XB9yuAO4qbYM\nJ73qL8jA26PJMZerq/diieXmoEJGX+YppaqvI5tCX3U6PN9ss3dPlEban37IoxdP\nALce2/PV7QKBgB1YekFuMmea0fbTngOKVZ78984SnVUu91+JHqRRxUsmFk9VjYg2\nX/RLlkcQGlPQcmZVFS1bvc7f/NDs8Eaf6R51iD/Y9Ch6EexRdYjstdPg6D/pXKma\nZfcfssvefC/K/UM0ymenY2+REQHe9Qbx+g4ILdyokl50nA65RrG5ribtAoGAJdWw\nFCWb/lVSagW8P+74IojNHD5X+/6ohnZXfQFqUWXYNAJoElUUdBgj2/UeQkecdedI\n8tFt2AYhj5gnAxiP4QnEJjeooeKLzjo/RskftFASyjCadZj8iXiKCizUO5iZ3yqg\n35Nzva2Ry1HnwegCKMGcOyAtNS5ub7iX8a6tAtECgYBPvbkaxmgJQHTJ3leH9PPW\nJ/kkjN3k6eY+faDeouJNk/0KMv9e7/HGXbouuVcefHm+mQmnWXThCVQ1V3uP/U4l\n7Jpraj9X8OBm/5Y9x8kP+Jx6muCen0kNdL+uGK31GzbwSdpsoIkohXzOuEpty76D\n/KKDyQJCgKOEL4VoFrDU6Q==\n-----END PRIVATE KEY-----\n",
  "client_email": "firebase-adminsdk-65uxl@efimerum-d15e8.iam.gserviceaccount.com",
  "client_id": "113970136974838988342",
  "auth_uri": "https://accounts.google.com/o/oauth2/auth",
  "token_uri": "https://accounts.google.com/o/oauth2/token",
  "auth_provider_x509_cert_url": "https://www.googleapis.com/oauth2/v1/certs",
  "client_x509_cert_url": "https://www.googleapis.com/robot/v1/metadata/x509/firebase-adminsdk-65uxl%40efimerum-d15e8.iam.gserviceaccount.com"
}
